<svg xmlns="http://www.w3.org/2000/svg" width="140" height="24" fill="none">
  <circle cx="12" cy="12" r="12" fill="#009688"/>
  <path fill="#fff" d="M12 5l2 5h5l-4 3 1 5-4-3-4 3 1-5-4-3h5l2-5z"/>
  <circle cx="12" cy="12" r="12" fill="#009688" transform="translate(29)"/>
  <path fill="#fff" d="M41 5l2 5h5l-4 3 1 5-4-3-4 3 1-5-4-3h5l2-5z"/>
  <circle cx="12" cy="12" r="12" fill="#009688" transform="translate(58)"/>
  <path fill="#fff" d="M70 5l2 5h5l-4 3 1 5-4-3-4 3 1-5-4-3h5l2-5z"/>
  <circle cx="12" cy="12" r="12" fill="#009688" transform="translate(87)"/>
  <path fill="#fff" d="M99 5l2 5h5l-4 3 1 5-4-3-4 3 1-5-4-3h5l2-5z"/>
  <circle cx="12" cy="12" r="12" fill="#E0E0E0" transform="translate(116)"/>
  <path fill="#fff" d="M128 5l2 5h5l-4 3 1 5-4-3-4 3 1-5-4-3h5l2-5z"/>
</svg>
